government = monarchy
add_government_reform = autocracy_reform
government_rank = 1
primary_culture = brasanni
add_accepted_culture = sun_elf
religion = bulwari_sun_cult
technology_group = tech_bulwari
historical_friend = F37 #historical overlord
capital = 596

1000.1.1 = { set_estate_privilege = estate_mages_organization_religious }

1443.6.29 = {
	monarch = {
		name = "Regency for Jareer szal-Barseen"
		adm = 2
		dip = 4
		mil = 0
		regent = yes
	}
	queen = {
        country_of_origin = F43
        name = "Nahrina"
        dynasty = "szel-Arfajazan"
        birth_date = 1410.5.25
        death_date = 1490.1.1
        female = yes
        adm = 2
        dip = 4
        mil = 0
    }
    add_queen_personality = charismatic_negotiator_personality
}

1443.6.30 = {
	heir = {
		name = "Jareer"
		monarch_name = "Jareer V"
		dynasty = "szal-Barseen"
		birth_date = 1433.6.30
		death_date = 1499.7.1
		claim = 100
		adm = 2
		dip = 3
		mil = 4
	}
	add_heir_personality = conqueror_personality
}
