name = "Kimánis War"
war_goal = {
	type = take_border
	casus_belli = cb_border_war
	province = 2732
}

1441.1.1 = {
	add_attacker = G47
	add_defender = G46
}

1443.6.1 = {
	rem_attacker = G47
	rem_defender = G46
}