# Cannorian Medieval Infantry

type = infantry
unit_type = tech_elven

maneuver = 1
offensive_morale = 1
defensive_morale = 1
offensive_fire = 0
defensive_fire = 0
offensive_shock = 1
defensive_shock = 0

trigger = {
	NOT = {
		AND = {
			tag = F46
			ai = yes
		}
	}
}