#314 - Vologda

owner = A32
controller = A32
add_core = A32
add_core = A60
culture = arannese
religion = regent_court

hre = yes

base_tax = 4
base_production = 3
base_manpower = 3

trade_goods = grain

capital = ""

is_city = yes









add_permanent_province_modifier = {
	name = elven_minority_coexisting_small
	duration = -1
}