#383 - Tabouk

owner = F06
controller = F06
add_core = F06
add_core = F57
culture = khasani
religion = mother_akan

hre = no

base_tax = 3
base_production = 4
base_manpower = 3

trade_goods = iron

capital = ""

is_city = yes








