# No previous file for Manado
owner = F20
controller = F20
add_core = F20
culture = surani
religion = bulwari_sun_cult

hre = no

base_tax = 1
base_production = 1
base_manpower = 1

trade_goods = livestock

capital = ""

is_city = yes










