#76 - Salzburg

owner = A13
controller = A13
add_core = A13
add_core = A71
culture = bluefoot_halfling
religion = regent_court
hre = no
base_tax = 3
base_production = 4
trade_goods = grain
base_manpower = 1
capital = "" 
is_city = yes









