#90 - Vlaanderen | 

owner = A01
controller = A01
add_core = A01
culture = sorncosti
religion = regent_court

hre = no

base_tax = 5
base_production = 5
base_manpower = 2

trade_goods = cloth

capital = ""

is_city = yes







