reveria_1 = {
	slot = 1
	generic = no
	ai = yes
	potential = {
		tag = A05
	}
	has_country_shield = yes
	
	A05_prepare_first_kobold_incursion = {
		icon = mission_rb_unite_the_clans
		required_missions = { A05_reconquer_the_gnomish_pass }
		position = 2
		
		trigger = {
			mil_power = 100
		    OR = {
				advisor = army_organiser
				advisor = army_reformer
				advisor = commandant
				advisor = grand_captain
				advisor = recruitmaster
				advisor = fortification_expert
				advisor = quartermaster
				}
			army_size_percentage = 0.9
			manpower_percentage = 0.2
			num_of_generals = 1
			owns_core_province = 167
			167 = {
				fort_level = 1
				}
				OR = { has_country_modifier = racial_pop_kobold_expulsion has_country_modifier = racial_pop_kobold_purge }
		}
		
		effect = {
			dragondowns_area = {
				limit = {
					NOT = { is_core = ROOT }
					NOT = { is_permanent_claim = ROOT }
				}
				add_permanent_claim = ROOT
			}
			170 = {
				limit = {
					NOT = { is_core = ROOT }
					NOT = { is_permanent_claim = ROOT }
				}
				add_permanent_claim = ROOT
			}
			dragonpoint_area = {
				limit = {
					NOT = { is_core = ROOT }
					NOT = { is_permanent_claim = ROOT }
				}
				add_permanent_claim = ROOT
				}
			add_country_modifier = {
		name= "reveria_ready_to_fight_a"
		duration = 3650
			}	
		add_mil_power = -100
		}
	}
		
	A05_Reclaim_Drekiriki = {
		icon = mission_rb_conquer_the_highlands
		required_missions = { A05_prepare_first_kobold_incursion }
		position = 3
		
		trigger = {
			dragondowns_area = {
				type = all
				owned_by = ROOT
				is_core = ROOT
			}
		    dragonpoint_area = {
				type = all
				owned_by = ROOT
				is_core = ROOT
			}
			170 = {
			owned_by = ROOT
				is_core = ROOT
				}
			adm_power = 20
		
		
		}
		effect = {
			dragonspine_area = {
				limit = {
					NOT = { is_core = ROOT }
					NOT = { is_permanent_claim = ROOT }
				}
				add_permanent_claim = ROOT
			}
			183 = {
				limit = {
					NOT = { is_core = ROOT }
					NOT = { is_permanent_claim = ROOT }
				}
				add_permanent_claim = ROOT
				}
				country_event = { id = reveria.12 }	
				177 = { change_province_name = Drekiríki
				rename_capital = Drekiríki }
			}
			
		provinces_to_highlight = {
			OR = {
				area = dragondowns_area
				area = dragonpoint_area
				province_id = 170
			}
				NOT = { owned_by = ROOT }
				has_discovered = ROOT	
		}
	}
	
	A05_A_New_Capital = {
		icon = mission_great_trading_houses
		required_missions = { A05_Reclaim_Drekiriki }
		position = 4
		trigger = {
		is_at_war = no
		treasury = 100
		adm_power = 100
		177 = {
			owned_by = ROOT
				is_core = ROOT
				development = 15
				OR = {
				has_owner_culture = yes
				culture_group = gnomish
					}
				}
		}
		
		effect = {
		country_event = { id = reveria.13 }
		
		}
		
		provinces_to_highlight = {
		
		}
	}
	
	A05_sustainable_economy_for_drekiriki ={
	icon = mission_city_prosperity
		required_missions = { A05_A_New_Capital }
		position = 5
		
		trigger = {
		capital = 177
		177 = { AND = {
		OR = {
		has_building = temple
		has_building = cathedral
		}
		OR = {
		has_building = workshop
		has_building = counting_house
		}
		OR = {
		has_building = marketplace
		has_building = trade_depot
		has_building = stock_exchange
		}
		development = 35
		}
		}
		}
		effect = {
		176 = { add_province_modifier = { 
				name = reveria_developing_countryside
				duration = 3650
				}}
		178 = { add_province_modifier = { 
				name = reveria_developing_countryside
				duration = 3650
				}}
		175 = { add_province_modifier = { 
				name = reveria_developing_countryside
				duration = 3650
				}}
				
		}
			
	}	
	
	A05_develop_the_dragonpoint_countryside ={
	icon = mission_colonial
		required_missions = { A05_sustainable_economy_for_drekiriki }
		position = 6
		
		trigger = {
		dragonpoint_area = {
				type = all
				owned_by = ROOT
				is_core = ROOT
			}
		176 =  { development = 10 
		OR = { has_building = workshop has_building = counting_house
		}
		}
		
		178 =  { development = 10 
		OR = { has_building = workshop has_building = counting_house
		}
		}
		
		175 =  { development = 10 
		OR = { has_building = workshop has_building = counting_house
		}
		}
		}
		effect = {
		add_country_modifier = {
				name = "reveria_developed_countryside"
				duration = 7300
				}
			}	
	}
		
	A05_defending_the_capital ={
	icon = mission_conquer_mewar
		required_missions = { A05_develop_the_dragonpoint_countryside }
		position = 7
		
		trigger = {
			capital = 177
			177 = { fort_level = 2 }
			owns_core_province = 167
			owns_core_province = 184
			owns_core_province = 169
			167 = { fort_level = 2 }
			184 = { fort_level = 2 }
		}
		
		effect = {
		add_estate_loyalty = {
		estate = estate_nobles
		desc = "Defended the Dragoncoast: "
		loyalty = 10
		duration = -1
		}
		country_event = { id = reveria.14 }			
		}	
	}
		
	A05_attract_gnomish_industry ={
	icon = mission_smith
		required_missions = { A05_defending_the_capital }
		position = 8
		
		trigger = {
			high_tolerance_gnomish_race_trigger = yes
			owns_core_province = 177
			owns_core_province = 169
			adm_power = 100
			has_estate = estate_artificers
			
			
		}
		
		effect = {
		dragonpoint_area = { add_prosperity = 50 }
		 177 = {
			    add_center_of_trade_level = 1
				add_gnomish_minority_size_effect = yes
				change_trade_goods = gems
				change_innovativeness = 1
				mission_reward_artifice_points_1 = yes
				add_adm_power = -100
				add_estate_loyalty = {
				estate = estate_artificers
				loyalty = 10
		}
			}	
		}
	}
		
	A05_grant_artificers_privileges ={
	icon = invade_poland
		required_missions = { A05_attract_gnomish_industry }
		position = 9
		
		trigger = {
			
			estate_loyalty = {
			estate = estate_artificers
			loyalty = 45
			
			}
			estate_influence = {
			estate = estate_artificers
			influence = 35
			}
		}
		
		effect = {
		country_event = { id = reveria.15 }	
		change_innovativeness = 1
		
			}	
		}
		
	A05_gnome_mines_secured ={
	icon = mission_mechanical_mining
		required_missions = { A05_grant_artificers_privileges }
		position = 10
		
		trigger = {
		adm_power = 100
		any_country = {
				culture_group = dwarven
				has_opinion = {
					who = ROOT
					value = 100
				}
			}
			dragonheights_area = {
				type = all
				owned_by = ROOT
				is_core = ROOT
			}
			dragondepth_area = {
				type = all
				owned_by = ROOT
				is_core = ROOT
			}
		}
		
		effect = {
		add_adm_power = -100
		add_years_of_income = -1
		4646 = { change_culture = cliff_gnome change_religion = the_thought change_trade_goods = gems }
		4645 = { change_culture = cliff_gnome change_religion = the_thought change_trade_goods = gems add_dwarven_minority_size_effect = yes}
		4644 = { change_culture = cliff_gnome change_religion = the_thought change_trade_goods = gems add_dwarven_minority_size_effect = yes}
		189 = { change_culture = cliff_gnome change_religion = the_thought add_dwarven_minority_size_effect = yes}
		4643 = { change_culture = cliff_gnome change_religion = the_thought add_dwarven_minority_size_effect = yes}
		185 = { change_culture = cliff_gnome change_religion = the_thought }
		186 = { change_culture = cliff_gnome change_religion = the_thought }
		187 = { change_culture = cliff_gnome change_religion = the_thought }
		
		173 = {
			    add_center_of_trade_level = 1
				add_base_production = 3
			}
		177 = { add_base_production = 2 }
		mission_reward_artifice_points_4 = yes
		add_estate_loyalty = {
				estate = estate_artificers	
				loyalty = 10
		}
		
			}	
	}
		
	A05_damestear_demands ={
	icon = mission_rb_inland_india
		required_missions = { A05_gnome_mines_secured }
		position = 11
		
		trigger = {
			production_leader = {
			trade_goods = damestear
			}
			owns_core_province = 146
			146 = { has_building = tradecompany 
			OR = { 
			has_building = workshop   
			has_building = counting_house 
			}}		
					estate_influence = {
						estate = estate_artificers
						influence = 50
					}
			
		}
		
		effect = {
			mission_reward_artifice_points_1 = yes
			add_estate_loyalty = {
				estate = estate_artificers	
				loyalty = 10
			}
			add_estate_loyalty = {
				estate = estate_mages
				loyalty = 10
			}
			define_advisor = {
    			type = natural_scientist
    			skill = 2
   				culture = creek_gnome
    			religion = regent_court
				discount = yes
			}
			}	
	}
		
	A05_a_gnomish_gift ={
	icon = mission_missive
		required_missions = { A05_damestear_demands A05_demand_for_precursor_relics }
		position = 12
		
		trigger = {
			has_regency = no
			production_leader = {
			trade_goods = damestear
			}
			estate_loyalty = {
			estate = estate_artificers
			loyalty = 50
			}
			OR = {
			employed_advisor = {
			culture = cliff_gnome}
			employed_advisor = {
			culture = creek_gnome }
			}
		}
		
		effect = {
		country_event = { id = reveria.16 }	
			}	
		}
}


reveria_2 = {
	slot = 2
	generic = no
	ai = yes
	potential = {
		tag = A05
	}
	has_country_shield = yes
	

	A05_reconquer_the_gnomish_pass = {
		icon = mission_unite_home_region
		required_missions = { }
		position = 1
		
		trigger = {
			owns_core_province = 145
			owns_core_province = 167
			owns_core_province = 148
		}
		
		provinces_to_highlight = {
			OR = {
				province_id = 145
				province_id = 167
				province_id = 148
			}
			NOT = {	
				country_or_non_sovereign_subject_holds = ROOT
			}
		}
		
		effect = {
			if = {
				limit = { 
					146 = {
						NOT = { is_core = ROOT }
						NOT = { is_permanent_claim = ROOT }
					}
				}
				146 = {
					add_permanent_claim = ROOT
				}
			}
			if = {
				limit = { 
					169 = {
						NOT = { is_core = ROOT }
						NOT = { is_permanent_claim = ROOT }
					}
				}
					169 = {
					add_permanent_claim = ROOT
				}
			}
			if = {
				limit = { 
					126 = {
						NOT = { is_core = ROOT }
						NOT = { is_permanent_claim = ROOT }
					}
				}
					126 = {
					add_permanent_claim = ROOT
				}
			}
			storm_isles_area = {
				limit = {
					NOT = { is_core = ROOT }
					NOT = { is_permanent_claim = ROOT }
				}
				add_permanent_claim = ROOT
				}
			add_accepted_culture = cliff_gnome
			change_innovativeness = 1
			add_prestige = 10
			add_manpower = 1.5
		}
	}
	
	A05_portnamm_secured ={
	icon = mission_hanseatic_city
		required_missions = { A05_reconquer_the_gnomish_pass }
		position = 2
		
		trigger = {
			126 = { country_or_non_sovereign_subject_holds = ROOT }
			129 = { country_or_non_sovereign_subject_holds = ROOT }
			142 = { country_or_non_sovereign_subject_holds = ROOT }
		}
		
		provinces_to_highlight = {
			OR = {
				province_id = 126
				province_id = 129
				province_id = 142
			}
			NOT = {
				country_or_non_sovereign_subject_holds = ROOT
			}
		}
		
		effect = {
			change_innovativeness = 1
				add_country_modifier = {
				name = "reveria_protected_trade"
				duration = 7300
				}
			small_increase_of_gnomish_tolerance_effect = yes
			129 = { add_gnomish_minority_size_effect = yes }
			142 = { add_gnomish_minority_size_effect = yes }
				
			
		}
	}
		
	A05_the_thought_tolerance_campaign ={
	icon = mission_writing_book
		required_missions = { A05_portnamm_secured }
		position = 3
		
		trigger = {
		treasury = 50
		adm_power = 100
		NOT = {
				exists = A06
			}
		NOT = {
				exists = A79
			}
		}
		
		effect = {
		add_adm_power = -100
		add_treasury = -50
		add_country_modifier = {
		name= "reveria_thought_tolerance_campaign"
		duration = 3650
		}
		small_increase_of_gnomish_tolerance_effect = yes
		add_estate_loyalty = {
				estate = estate_church
				loyalty = -10
		}
		country_event = { id = reveria.40 days = 31 }
		}
		}
		
	A05_grant_guild_rights_and_citzenship_to_gnomes ={
	icon = the_ostend_company
		required_missions = { A05_the_thought_tolerance_campaign }
		position = 4
		
		trigger = {
		OR = {
		medium_tolerance_gnomish_race_trigger = yes
		high_tolerance_gnomish_race_trigger = yes
		}
		adm_power = 100	
		}
		
		effect = {
		add_adm_power = -100
		add_estate_loyalty = {
		estate = estate_burghers
		loyalty = -10
		}
		define_advisor = {
    			type = trader
    			skill = 2
   				culture = cliff_gnome
    			religion = the_thought
				discount = yes
		}
		add_country_modifier = {
		name= "reveria_gnomish_enterprises"
		duration = 3650
			}	
		}
	}
		
	A05_gnomes_in_the_army ={
	icon = mission_cannons_firing
		required_missions = { A05_grant_guild_rights_and_citzenship_to_gnomes }
		position = 5
		
		trigger = {
		mil_tech = 6
		mil_power = 400	
		OR = {
		169 = {
				owned_by = ROOT
				OR = {
				has_building = barracks
				has_building = training_fields
				}
		}
		capital_scope = {
		culture_group = gnomish
		OR = {
				has_building = barracks
				has_building = training_fields
		}
		}
		}
		}
		effect = {
		add_mil_power = -400
		add_country_modifier = {
		name= "reveria_gnomish_army"
		duration = -1
			}
		define_advisor = {
    			type = army_reformer
    			skill = 2
   				culture = cliff_gnome
    			religion = the_thought
				discount = yes
			}
				set_country_flag = reveria_nomsgaetir_mercs_flag
			custom_tooltip = reveria_nomsgaetir_mercs_reward_tt
		}
	}
		
	A05_gnomes_in_the_navy ={
	icon = mission_rb_grow_the_channel
		required_missions = { A05_gnomes_in_the_army }
		position = 6
		
		trigger = {
		dip_power = 400
		OR = {
		169 = {
				owned_by = ROOT
				culture_group = gnomish
				OR = {
				has_building = shipyard
				has_building = grand_shipyard
				}
		}
		capital_scope = { 
		culture_group = gnomish
		OR = {
				has_building = shipyard
				has_building = grand_shipyard
		}
		}
		}
		}
		
		effect = {
		add_dip_power = -400
		add_country_modifier = {
		name= "reveria_gnomish_navy"
		duration = -1
			}	
		define_advisor = {
    			type = navy_reformer
    			skill = 2
   				culture = cliff_gnome
    			religion = the_thought
				discount = yes
		}
		}
	}
	
	A05_integration_into_the_administration ={
	icon = mission_artificier_experience
		required_missions = { A05_gnomes_in_the_navy }
		position = 7
		
		trigger = {
		high_tolerance_gnomish_race_trigger = yes
		adm_power = 400
		OR = {
			employed_advisor = {
					culture = cliff_gnome
			}
			employed_advisor = {
					culture = creek_gnome
			}
			employed_advisor = {
					culture = imperial_gnome
			}
		}
		}
		
		effect = {
		
		add_adm_power = -400
		country_event = { id = reveria.11 }	
			}	
		}
		
	A05_the_gommo_of_portnamm ={
	icon = leiden_university
		required_missions = { A05_integration_into_the_administration }
		position = 8
	
		trigger = {
			owns_core_province = 126
			126 = { culture = creek_gnome
				development = 30
			}
			has_estate = estate_artificers
			innovativeness = 2
			treasury = 270
			accepted_culture = creek_gnome
		}
		
		effect = {
		126 = { add_building_construction = {
					building = university
					speed = 0.5 
					cost = 1.0
				}
			}
		129 = { change_culture = creek_gnome
			change_trade_goods = paper
			
		}
		142 = { change_culture = creek_gnome
			change_trade_goods = paper
			
		}
		mission_reward_artifice_points_2 = yes
		add_estate_influence_modifier = {
			estate = estate_artificers
			desc = "Gommo of Portnamm: "
			influence = 10
			duration = -1
		}
		}
	}
		
	A05_the_gommo_of_drekiriki={
	icon = bibliotheca_corviana
		required_missions = { A05_the_gommo_of_portnamm }
		position = 9
		
		trigger = {
		owns_core_province = 177
		126 = { has_building = university
		}
		treasury = 270
		capital = 177
		innovativeness = 3
		}
		effect = {
		177 = { add_building_construction = {
					building = university
					speed = 0.5 
					cost = 1.0
				}
				add_gnomish_minority_size_effect = yes
		}
				mission_reward_artifice_points_3 = yes
				add_estate_influence_modifier = {
			estate = estate_artificers
			desc = "Gommo of Drekiriki: "
			influence = 10
			duration = -1
		}
			
		}
	}
		
	A05_attract_foreign_students={
	icon = found_the_vatican_library
		required_missions = { A05_the_gommo_of_drekiriki }
		position = 10
		
		trigger = {
			any_country = {	culture_group = dwarven
				has_opinion = {
				who = A05
				value = 80
				}
			}
			any_country = {	culture_group = elven
				has_opinion = {
				who = A05
				value = 80
				}
			}
		}
		
		
		effect = {
			126 = { 
				add_dwarven_minority_size_effect = yes
				add_elven_minority_size_effect = yes
			}
			177 = { 
				add_dwarven_minority_size_effect = yes
				add_elven_minority_size_effect = yes
			}
			change_innovativeness = 2
			mission_reward_artifice_points_1 = yes
		}	
	}
		
	A05_demand_for_precursor_relics={
	icon = mission_zambezi_gold
		required_missions = { A05_attract_foreign_students }
		position = 11
		
		trigger = {
			OR = {
				trading_bonus = {
					trade_goods = precursor_relics
					value = yes
				}
				precursor_relics = 1
				any_subject_country = {
					precursor_relics = 1
				}
			}
		}
		
		effect = {
			add_estate_loyalty = {
				estate = estate_mages
				loyalty = 10
			}	
			add_estate_loyalty = {
				estate = estate_artificers
				loyalty = 10
			}
			change_innovativeness = 2
			mission_reward_artifice_points_1 = yes			
			}	
	}
		
	A05_southward_winds={
	icon = mission_junk_boat
		required_missions = {  }
		position = 12
		
		trigger = {
			has_idea = A05_second_age_of_reavers
			OR = {
			93 = {
		owner = {
	if = {
      limit = { is_subject = yes }
      overlord = {
        has_spy_network_from = {
          who = ROOT
          value = 30
        }
      }
    }
    else = {
      has_spy_network_from = {
        who = ROOT
        value = 30
      }
    }
	}
	}
			owns_core_province = 93
			}
		}

		
		effect = {
						if = {
				limit = { 
					93 = {
						NOT = { is_core = ROOT }
						NOT = { is_permanent_claim = ROOT }
					}
				}
					93 = {
					add_permanent_claim = ROOT
				}
			}
			}	
	}
		
	A05_moonisle_raiding_outpost={
	icon = secure_the_republic
		required_missions = { A05_southward_winds }
		position = 13
		
		trigger = {
			owns_core_province = 93
		93 = {
		OR = {
		has_building = dock
		has_building = drydock
		}
		OR = {
		has_building = shipyard
		has_building = grand_shipyard
		}
		}
			OR = {
			9 = {
		owner = {
	if = {
      limit = { is_subject = yes }
      overlord = {
        has_spy_network_from = {
          who = ROOT
          value = 30
        }
      }
    }
    else = {
      has_spy_network_from = {
        who = ROOT
        value = 30
      }
    }
	}
	}
			owns_core_province = 9
			}
		}
		provinces_to_highlight = {
			province_id = 93

			
			NOT = {	
				country_or_non_sovereign_subject_holds = ROOT
			}
		}
		
		effect = {
						if = {
				limit = { 
					9 = {
						NOT = { is_core = ROOT }
						NOT = { is_permanent_claim = ROOT }
					}
				}
					9 = {
					add_permanent_claim = ROOT
				}
			}
			}	
	}
		
	A05_adrail_raiding_outpost={
	icon = fortify_malta
		required_missions = { A05_moonisle_raiding_outpost }
		position = 14
		
		trigger = {
			owns_core_province = 9
		9 = {
		OR = {
		has_building = dock
		has_building = drydock
		}
		OR = {
		has_building = shipyard
		has_building = grand_shipyard
		}
		}
			OR = {
			524 = {
		owner = {
	if = {
      limit = { is_subject = yes }
      overlord = {
        has_spy_network_from = {
          who = ROOT
          value = 30
        }
      }
    }
    else = {
      has_spy_network_from = {
        who = ROOT
        value = 30
      }
    }
	}
	}
			owns_core_province = 524
			}
		}
		
		provinces_to_highlight = {
			province_id = 9

			
			NOT = {	
				country_or_non_sovereign_subject_holds = ROOT
			}
		}
		
		effect = {
						if = {
				limit = { 
					524 = {
						NOT = { is_core = ROOT }
						NOT = { is_permanent_claim = ROOT }
					}
				}
					524 = {
					add_permanent_claim = ROOT
				}
			}
			}	
	}
		
	A05_reavers_of_the_dameshead_sea={
	icon = mission_seize_north_sea_trade
		required_missions = { A05_adrail_raiding_outpost }
		position = 15
		
		trigger = {
		navy_tradition = 35	
		owns_core_province = 9
		owns_core_province = 524
		}
		
		effect = {
			add_country_modifier = {
				name = "reveria_reavers_of_the_Dameshead_sea"
				duration = -1
			}
			}	
		}
		
	A05_second_age_of_reavers_m={
	icon = mission_destroyed_city
		required_missions = { A05_reavers_of_the_dameshead_sea A05_reavers_of_the_divenhal_sea }
		position = 17
		
		trigger = {
		navy_tradition = 50	
		}
		
		effect = {
		add_country_modifier = {
				name = "reveria_second_age_of_reavers"
				duration = -1
			}
			}	
		}
}


reveria_3 = {
	slot = 3
	generic = no
	ai = yes
	potential = {
		tag = A05
	}

	has_country_shield = yes
	
	A05_acquire_nimscodd ={
	icon = fortify_malta
		required_missions = { A05_reconquer_the_gnomish_pass }
		position = 2
		
		trigger = {
			owns_core_province = 146
			owns_core_province = 169	
		}
		provinces_to_highlight = {
			OR = {
				province_id = 146
				province_id = 169
			}
			NOT = {	
				country_or_non_sovereign_subject_holds = ROOT
			}
		}
		
		effect = {
		change_innovativeness = 2
		small_increase_of_gnomish_tolerance_effect = yes
		add_country_modifier = {
				name = "reveria_gnomish_innovations"
				duration = 36500
			}	
		}
	}
		
	A05_reaver_reunion ={
	icon = mission_warrior_gold
		required_missions = { A05_acquire_nimscodd }
		position = 3
		
		trigger = {
		OR = { Z08 = { has_opinion = {
					who = ROOT
					value = 50
				}
				}
				diplomat = 1
				}
			Z08 = {	has_regency = no}
			
			has_regency = no
			storm_isles_area = {
				type = all
				owned_by = ROOT
				is_core = ROOT
			}
			}
		
		
		effect = {
		Z08 = { country_event = { id = reveria.25 } }
			
			hidden_effect = {
				Z08 = {
					add_country_modifier = {
						name= "reveria_recently_hosted_feast"
						duration = 3650
					}
				}
			}
		}
	}
		
	A05_reavers_and_the_mother_bear ={
	icon = mission_duel_snow
		required_missions = { A05_reaver_reunion }
		position = 4
		
		trigger = {
		OR = {
			alliance_with = Z08
			owns_core_province = 985
			revrland_area = {
				type = all
				owned_by = ROOT
				is_core = ROOT
			}
		}
		NOT = {
		Z08 = { has_country_modifier = reveria_recently_hosted_feast
		}
		}
		}
		effect = {
		add_country_modifier = {
				name = "reveria_gerudian_tolerance"
				duration = -1
			}
			add_estate_loyalty = {
				estate = estate_church
				loyalty = -10
			}	
			add_estate_influence_modifier = {
    estate = estate_church
	desc = est_reveria_church_gerudian_tolerance
    influence = -10
    duration = 7300
			}
		}
	}
	
	A05_time_to_host ={
	icon = mission_monarch_diplomacy
		required_missions = { A05_reavers_and_the_mother_bear }
		position = 5
		
		trigger = {
		is_at_war = no
			
		has_regency = no
		treasury = 100
		dip_power = 100
		}
		
		effect = {
		add_treasury = -100
		add_dip_power = -100
		add_estate_loyalty = {
				estate = estate_church
				loyalty = -5
		}
		country_event = { id = reveria.6 }
			}	
	}
		
	A05_research_reaver_bloodlines ={
	icon = mission_diplomacy_missive
		required_missions = { A05_time_to_host }
		position = 6
		
		trigger = {
			OR = {
			Z08 = { has_opinion = {
					who = ROOT
					value = 80
			}}
			Z10 = { has_opinion = {
					who = ROOT
					value = 80
			}}
			Z09 = { has_opinion = {
					who = ROOT
					value = 80
			
			}}
			NOT = {
				exists = Z10
				exists = Z09
			}
			owns_core_province = 959
			}
			treasury = 100
		}
		effect = {
		add_treasury = -100
		country_event = { id = reveria.8 }
			}	
		}
		
	A05_reverian_crown ={
	icon = mission_intervene_in_castile
		required_missions = { A05_research_reaver_bloodlines }
		position = 7
		
		trigger = {
		treasury = 200	
		OR = {
			A20 = { has_opinion = {
					who = ROOT
					value = 80
			}}
			A73 = { has_opinion = {
					who = ROOT
					value = 80
			}}
			A38 = { has_opinion = {
					who = ROOT
					value = 80
		}}
		owns_core_province = 62
		owns_core_province = 8
		owns_core_province = 912
		}
		has_regency = no
		}
		effect = {
		country_event = { id = reveria.9 }
			}	
	}
		
	A05_derhildes_bloodline ={
	icon = mission_female_throne
		required_missions = { A05_reverian_crown }
		position = 8
		
		trigger = {
		treasury = 100
		prestige = 50
		OR = {
			113 = {
		owner = {
	if = {
      limit = { is_subject = yes }
      overlord = {
        has_spy_network_from = {
          who = ROOT
          value = 50
        }
      }
    }
    else = {
      has_spy_network_from = {
        who = ROOT
        value = 50
      }
    }
	}
	}
			113 = { country_or_non_sovereign_subject_holds = ROOT }
			
			}
		}
		
		effect = {
		add_treasury = -100
		add_casus_belli = {
					type = cb_restore_personal_union
					months = 300
					target = A02
			}
		deranne_area = { add_permanent_claim = ROOT }
		darom_area = { add_permanent_claim = ROOT }
			}	
	}
		
	A05_land_of_the_reaverqueen ={
	icon = mission_green_village
		required_missions = { A05_derhildes_bloodline }
		position = 9
		
		trigger = {
		OR = {
		deranne_area = { 
		owned_by = ROOT
		is_core = ROOT
		type = all
		}	
		senior_union_with = A02
		}
		}
		
		effect = {
			add_prestige = 10
			add_country_modifier = {
		name= "reveria_crown2"
		duration = -1
		
			}	
			hidden_effect = {
		remove_country_modifier = reveria_crown1
		
			
			}
		}	
	}
		
	A05_henriks_bloodline ={
	icon = mission_confrontation
		required_missions = { A05_land_of_the_reaverqueen }
		position = 10
		
		trigger = {
		treasury = 100
		prestige = 50
		OR = {
			43 = {
		owner = {
	if = {
      limit = { is_subject = yes }
      overlord = {
        has_spy_network_from = {
          who = ROOT
          value = 50
        }
      }
    }
    else = {
      has_spy_network_from = {
        who = ROOT
        value = 50
      }
    }
	}
	}
			43 = { country_or_non_sovereign_subject_holds = ROOT }
			}
		}
		
		effect = {
		add_treasury = -100
		add_casus_belli = {
					type = cb_restore_personal_union
					months = 300
					target = A11
			}
		damespearl_area = { add_permanent_claim = ROOT }
		pearlywine_area = { add_permanent_claim = ROOT }
			}	
		}
		
	A05_divenscourge_pearls ={
	icon = mission_monarch_in_throne_room
		required_missions = { A05_henriks_bloodline }
		position = 11
		
		trigger = {
		OR = {
		AND = {
		damespearl_area = { 
		owned_by = ROOT
		is_core = ROOT
		type = all
		}	
		pearlywine_area = { 
		owned_by = ROOT
		is_core = ROOT
		type = all
		}
		}
		senior_union_with = A11
		}
		}
		
		effect = {
			add_prestige = 10
			add_country_modifier = {
		name= "reveria_crown3"
		duration = -1
		
			}	
			hidden_effect = {
		remove_country_modifier = reveria_crown2
		
			
			}
			tretunica_area = { add_permanent_claim = ROOT }
			tretunica_area = { add_permanent_claim = A11 }
			add_casus_belli = {
					type = cb_restore_personal_union
					months = 300
					target = Z05
			}
		}
	}
		
	A05_the_last_claim ={
	icon = mission_thinking_king
		required_missions = { A05_divenscourge_pearls }
		position = 12
		
		trigger = {
				damespearl_area = {	 country_or_non_sovereign_subject_holds = ROOT }
				pearlywine_area = {	 country_or_non_sovereign_subject_holds = ROOT }
		}
		
		effect = {
			8 = { add_permanent_claim = ROOT }
		}	
	}
	
	
	A05_eastward_winds ={
	icon = mission_establish_high_seas_navy
		required_missions = { A05_southward_winds }
		position = 13
		
		trigger = {
			owns_core_province = 93
		93 = {
		OR = {
		has_building = dock
		has_building = drydock
		}
		OR = {
		has_building = shipyard
		has_building = grand_shipyard
		}
		}
				OR = {
			406 = {
		owner = {
	if = {
      limit = { is_subject = yes }
      overlord = {
        has_spy_network_from = {
          who = ROOT
          value = 30
        }
      }
    }
    else = {
      has_spy_network_from = {
        who = ROOT
        value = 30
      }
    }
	}
	}
			owns_core_province = 406
			}
		}
		provinces_to_highlight = {
			province_id = 93

			
			NOT = {	
				country_or_non_sovereign_subject_holds = ROOT
			}
		}
		
		effect = {
						if = {
				limit = { 
					406 = {
						NOT = { is_core = ROOT }
						NOT = { is_permanent_claim = ROOT }
					}
				}
					406 = {
					add_permanent_claim = ROOT
				}
			}
			}	
	}
	
	A05_tef_raiding_outpost ={
	icon = mission_invade_island
		required_missions = { A05_eastward_winds }
		position = 14
		
		trigger = {
			owns_core_province = 406
		406 = {
		OR = {
		has_building = dock
		has_building = drydock
		}
		OR = {
		has_building = shipyard
		has_building = grand_shipyard
		}
		}
				OR = {
			36 = {
		owner = {
	if = {
      limit = { is_subject = yes }
      overlord = {
        has_spy_network_from = {
          who = ROOT
          value = 30
        }
      }
    }
    else = {
      has_spy_network_from = {
        who = ROOT
        value = 30
      }
    }
	}
	}
			owns_core_province = 36
			}
		}
		provinces_to_highlight = {
			province_id = 406

			
			NOT = {	
				country_or_non_sovereign_subject_holds = ROOT
			}
		}
		
		effect = {
						if = {
				limit = { 
					36 = {
						NOT = { is_core = ROOT }
						NOT = { is_permanent_claim = ROOT }
					}
				}
					36 = {
					add_permanent_claim = ROOT
				}
			}
			}	
	}
	
	A05_pirail_raiding_outpost ={
	icon = secure_dejima
		required_missions = { A05_tef_raiding_outpost }
		position = 15
		
		trigger = {
			owns_core_province = 36
		36 = {
		OR = {
		has_building = dock
		has_building = drydock
		}
		OR = {
		has_building = shipyard
		has_building = grand_shipyard
		}
		}
				OR = {
			533 = {
		owner = {
	if = {
      limit = { is_subject = yes }
      overlord = {
        has_spy_network_from = {
          who = ROOT
          value = 30
        }
      }
    }
    else = {
      has_spy_network_from = {
        who = ROOT
        value = 30
      }
    }
	}
	}
			owns_core_province = 533
			}
		}
		provinces_to_highlight = {
			province_id = 36

			
			NOT = {	
				country_or_non_sovereign_subject_holds = ROOT
			}
		}
		
		effect = {
						if = {
				limit = { 
					533 = {
						NOT = { is_core = ROOT }
						NOT = { is_permanent_claim = ROOT }
					}
				}
					533 = {
					add_permanent_claim = ROOT
				}
			}
			}	
	}
	
	A05_reavers_of_the_divenhal_sea ={
	icon = imperial_navy
		required_missions = { A05_pirail_raiding_outpost }
		position = 16
		
		trigger = {
		navy_tradition = 35
		owns_core_province = 406
		owns_core_province = 36
		owns_core_province = 533	
		}
		
		effect = {
		add_country_modifier = {
				name = "reveria_reavers_of_the_Divenhal_sea"
				duration = -1
			}
			}	
		}
}


reveria_4 = {
	slot = 4
	generic = no
	ai = yes
	potential = {
		tag = A05
	}
	has_country_shield = yes
	
	
	A05_Big_Friendly_Giant = {
	icon = mission_rb_war_of_the_roses
		required_missions = { }
		position = 1
		
		trigger = {
				OR = {
					alliance_with = A13

					alliance_with = A01
				}
		}
		
		effect = {
			add_prestige = 5
			add_dip_power = 50
		}	
	}
		
	A05_playing_our_cards = {
	icon = mission_assemble_an_army
		required_missions = { A05_Big_Friendly_Giant }
		position = 2
		
		trigger = {
		OR = {
		custom_trigger_tooltip = { tooltip = reveria_playing_our_cards1_tt 
		
			OR = {
				is_in_war = {
					attacker_leader = ROOT
					attackers = A01
					defender_leader = A13					

				}
				is_in_war = {
					attacker_leader = ROOT
					attackers = A13
					defender_leader = A01

				}
				}
		}
		custom_trigger_tooltip = { tooltip = reveria_playing_our_cards2_tt 
				OR = { AND = { is_rival = A01 war_with = A01 }
				AND = { is_rival = A13 war_with = A13 } }
			}
		}
		}
		
		effect = {
		add_country_modifier = {
				name = "reveria_playing_our_cards"
				duration = 3650
		}
			if = { 
				limit = {
					AND = { owns_core_province = 141
						141 = { 
							culture_group = halfling }
					}
				}
							141 = {
								ROOT = {
									infantry = PREV
								}
									}
			
			}
			if = { 
				limit = {
					AND = { owns_core_province = 144
						144 = { 
							culture_group = halfling }
					}
				}
			144 = {
				ROOT = {
					infantry = PREV
				}
			}
			
			}
		}
	}
	
	A05_the_chance_of_a_century = {
	icon = establish_oktoberfest
		required_missions = { A05_playing_our_cards }
		position = 3
		
		trigger = {
			A97 = { exists = yes 
			}
			custom_trigger_tooltip = { 
				tooltip = reveria_chance_of_the_century1_tt

				NOT = { 
					OR = { 
						is_in_war = { 
							defenders = ROOT 
							attackers = A97 
						} 
						is_in_war = { 
							defenders = A97 
							attackers = ROOT 
						}
					}
				}
				}
				custom_trigger_tooltip = { 
				tooltip = reveria_chance_of_the_century2_tt
				A97 = { 
					is_in_war = { 
						attacker_leader = A97 
						casus_belli = cb_independence_war
					}
				}
				}
				custom_trigger_tooltip = { 
				tooltip = reveria_chance_of_the_century3_tt				
				all_country = {
					OR = {
						NOT = {
							is_in_war = {
								attacker_leader = A97
								defender_leader = THIS
							casus_belli = cb_independence_war
							}
						}
						NOT = {truce_with = ROOT}
					}
				}
				}
		}
		effect = {
			create_alliance = A97
			join_all_offensive_wars_of = A97
			join_all_defensive_wars_of = A97
			country_event = { id = reveria.10 }
			define_advisor = {
    			type = grand_captain
    			skill = 2
   				culture = bluefoot_halfling
    			religion = regent_court
				discount = yes
			}
			define_advisor = {
    			type = military_engineer
    			skill = 2
   				culture = redfoot_halfling
    			religion = regent_court
				discount = yes
			}
			add_country_modifier = {
				name= "reveria_halfling_wars"
				duration = 3650
			}
			small_increase_of_halfling_tolerance_effect = yes
			A97 = { 
				add_opinion = {
					who = ROOT
					modifier = supported_independence
				}
				small_increase_of_human_tolerance_effect = yes
			}
		}	
	}
		
	A05_ruined_sea_raiding = {
	icon = mission_fleet_arrival
		required_missions = { A05_land_spotted }
		position = 4
		
		provinces_to_highlight = {
			colonial_region = colonial_isles
			NOT = { country_or_non_sovereign_subject_holds = ROOT }
			has_discovered = yes
		}
		
		trigger = {
				num_of_provinces_owned_or_owned_by_non_sovereign_subjects_with = {
					value = 5
					colonial_region = colonial_isles
					is_city = yes
				}
			}
		
		
		effect = {
		add_country_modifier = {
		name= "reveria_ruined1"
		duration = -1
			}
		}	
	}
		
	A05_struggle_for_the_ruined_isles = {
	icon = mission_galleys_in_port
		required_missions = { A05_ruined_sea_raiding }
		position = 5
		
		provinces_to_highlight = {
			colonial_region = colonial_isles
			NOT = { country_or_non_sovereign_subject_holds = ROOT }
			has_discovered = yes
		}
		
		trigger = {
				num_of_provinces_owned_or_owned_by_non_sovereign_subjects_with = {
					value = 10
					colonial_region = colonial_isles
					is_city = yes
				}
			}
		
		effect = {
		
	ruined_isles_region = {
					add_permanent_claim = ROOT
				}
		add_country_modifier = {
		name= "reveria_ruined2"
		duration = -1
			}
		hidden_effect = {
		remove_country_modifier = reveria_ruined1
		
			
		}
		}
	}
		
	A05_asserting_dominance = {
	icon = mission_combat_barbary_piracy
		required_missions = { A05_struggle_for_the_ruined_isles }
		position = 6
		
		provinces_to_highlight = {
			colonial_region = colonial_isles
			NOT = { country_or_non_sovereign_subject_holds = ROOT }
			has_discovered = yes
		}
		
		trigger = {
				num_of_provinces_owned_or_owned_by_non_sovereign_subjects_with = {
					value = 20
					colonial_region = colonial_isles
					is_city = yes
				}
			}
		
		effect = {
		add_country_modifier = {
		name= "reveria_ruined3"
		duration = -1
			}
		hidden_effect = {
		remove_country_modifier = reveria_ruined2
		}
		}	
	}
		
	A05_island_hopping = {
	icon = mission_heart_of_the_hansa
		required_missions = { A05_asserting_dominance }
		position = 7
		
		provinces_to_highlight = {
			colonial_region = colonial_isles
			NOT = { country_or_non_sovereign_subject_holds = ROOT }
			has_discovered = yes
		}
		
		trigger = {
				num_of_provinces_owned_or_owned_by_non_sovereign_subjects_with = {
					value = 35
					colonial_region = colonial_isles
					is_city = yes
				}
			}
		
		effect = {
		add_country_modifier = {
		name= "reveria_ruined4"
		duration = -1
			}
		add_estate_loyalty = {
		estate = estate_burghers
		loyalty = 5
		}
		hidden_effect = {
		remove_country_modifier = reveria_ruined3
		}
		}	
	}
		
	A05_reverian_ruined_sea = {
	icon = control_coromandel
		required_missions = { A05_island_hopping }
		position = 8
		
		provinces_to_highlight = {
			colonial_region = colonial_isles
			NOT = { country_or_non_sovereign_subject_holds = ROOT }
			has_discovered = yes
		}
		
		trigger = {
				num_of_provinces_owned_or_owned_by_non_sovereign_subjects_with = {
					value = 48
					colonial_region = colonial_isles
					is_city = yes
				}
			}
		
		effect = {
			add_prestige = 20
			add_estate_loyalty = {
		estate = estate_burghers
		loyalty = 5
		}
		}	
	}
		
	A05_we_do_a_little_trolling = {
	icon = mission_disrupt_portuguese_trade
		required_missions = { A05_reverian_ruined_sea }
		position = 9
		
		trigger = {
		1519 = {
				privateer_power = {
					country = ROOT
					share = 30	
		}
		}
		}
		
		effect = {
		ynnsmouth_area = {
				limit = {
					NOT = { is_core = ROOT }
					NOT = { owned_by = ROOT }
				}
			add_permanent_claim = ROOT
		}
		}	
	}
	
	A05_mocbarja_dam = {
	icon = mission_torch_fire
		required_missions = { A05_damned_dam }
		position = 10
		
		provinces_to_highlight = {
				province_id = 1186
			
				NOT = { owned_by = ROOT }
				has_discovered = ROOT	
		}
		
		trigger = {
		1186 = {country_or_non_sovereign_subject_holds = ROOT
			}
			mil_power = 40
			treasury = 30
			manpower = 3
				
			
		}
		
		effect = {
			add_mil_power = -40
			add_treasury = -30
			add_estate_loyalty = {
				estate = estate_burghers
				loyalty = 5
			}
			country_event = { id = reveria.20 }	
			rzenta_region = {
			discover_country = A05
			}
			pomvasonn_area = {
			discover_country = A05
			}
			}	
		}
	
	A05_the_last_dragon_of_aelantir = {
	icon = mission_alone_in_the_wood
		required_missions = { A05_mocbarja_dam }
		position = 11
		
		trigger = {
				1815 = {country_or_non_sovereign_subject_holds = ROOT
				}
				1191 = {country_or_non_sovereign_subject_holds = ROOT
				}
		}
		
		effect = {
			country_event = { id = reveria.22 }
		}	
	}
	
	A05_picking_up_the_pieces = {
	icon = brest_dockyards
		required_missions = { A05_divenscourge_pearls }
		position = 12
		
		trigger = {
			OR = {
				47 = { country_or_non_sovereign_subject_holds = ROOT
				}
				48 = {country_or_non_sovereign_subject_holds = ROOT
				}
			}
		}
		
		effect = {
		add_prestige = 10
		}	
	}
	
	A05_reaver_empire = {
	icon = mission_empire
		required_missions = { A05_picking_up_the_pieces A05_the_last_claim }
		position = 13
		
		trigger = {
			owns_core_province = 8
		}
		
		effect = {
		set_government_rank = 3
		change_innovativeness = 1
		add_mercantilism = 2
		add_country_modifier = {
				name = "reveria_empire"
				duration = -1
			}
		}	
	}
	
	A05_gnoll_sails = {
	icon = mission_hill_gnoll_auxilaries
		required_missions = { A05_eastward_winds }
		position = 14
		
		provinces_to_highlight = {
			province_id = 406

			
			NOT = {	
				country_or_non_sovereign_subject_holds = ROOT
			}
		}
		trigger = {
			owns_core_province = 406	
		}
		
		effect = {
		add_casus_belli = {
					target = F07
					type = cb_vassalize_mission
		}
		add_casus_belli = {
					target = F10
					type = cb_vassalize_mission
		}
		}
	}
	
	A05_black_sails = {
	icon = mission_war_chest
		required_missions = { A05_tef_raiding_outpost }
		position = 15
		
		provinces_to_highlight = {
			province_id = 36

			
			NOT = {	
				country_or_non_sovereign_subject_holds = ROOT
			}
		}
		trigger = {
			owns_core_province = 36
		}
		
		effect = {
		add_casus_belli = {
					target = A74
					type = cb_vassalize_mission
		}
		}	
	}
	
}


reveria_5 = {
	slot = 5
	generic = no
	ai = yes
	potential = {
		tag = A05
	}
	has_country_shield = yes
	
	
	A05_the_reaver_fleet = {
	icon = mission_sea_battles
		required_missions = { }
		position = 1
		
		trigger = {
		navy_size_percentage = 1	
		}
		
		effect = {
		add_country_modifier = {
				name = "reveria_naval_enthusiasm"
				duration = 7300
			}
			define_explorer = {
				name = "Harald Of Vestrund"
				fire = 0
				shock = 2
				manuever = 4
				siege = 2
			}
		}
	}
	
	A05_westward_winds = {
	icon = mission_rb_scottish_north_sea_trade
		required_missions = { A05_the_reaver_fleet }
		position = 2
		
		trigger = {
			has_idea_group = exploration_ideas
			has_idea = quest_for_the_new_world	
			has_discovered = 1001
			dip_power = 50
		}
		
		effect = {
		if = {
				limit = { 
					1001 = {
						NOT = { is_core = ROOT }
						NOT = { is_permanent_claim = ROOT }
					}
				}
					1001 = {
					add_permanent_claim = ROOT
				}
			}
		
		add_dip_power = -50
		add_country_modifier = {
				name = "reveria_westward_winds"
				duration = 7300
			}	
		define_advisor = {
    			type = navigator
    			skill = 2
   				culture = ROOT
    			religion = ROOT
				discount = yes
		}
		}
	}
		
	A05_land_spotted ={
	icon = mission_rb_conquer_the_isles
		required_missions = { A05_westward_winds }
		position = 3
		
		trigger = {
		OR = {
			has_discovered = 1204
			has_discovered = 1205
			has_discovered = 951
		}
		}
		
		effect = {
		add_country_modifier = {
				name = "reveria_discover_aelantir_modifier"
				duration = 7300
			}	
		}
	}

	A05_nostalgic_cold ={
	icon = mission_rb_colonise_canada
		required_missions = { A05_land_spotted }
		position = 4
		
		provinces_to_highlight = {
			OR = {
				colonial_region = colonial_dalaire
			}
			NOT = {
				country_or_non_sovereign_subject_holds = ROOT
			}
		}
		trigger = {
			any_subject_country = {
				is_colonial_nation_of = ROOT
				capital_scope = { colonial_region = colonial_dalaire }
			}
		}
	
		effect = {
			add_country_modifier = {
				name = "reveria_colonial_venture"
				duration = 3650
			}	
		}
	}
	A05_a_promising_river ={
	icon = mission_advance_to_the_dnieper
		required_missions = { A05_nostalgic_cold }
		position = 5
		
		trigger = {
		has_discovered = 1746	
		}
		
		effect = {
		define_conquistador = {
				name = "Ivar of Knarhatt"
				fire = 3
				shock = 5
				manuever = 4
				siege = 0
			}
			}	
		}
	A05_purchasing_a_map ={
	icon = overseas_empire
		required_missions = { A05_a_promising_river }
		position = 6
		
		trigger = {
		has_discovered = 1749
		has_discovered = 2838
		has_discovered = 2488
		treasury = 100
		}
		
		effect = {
		dolindha_region = {
		discover_country = A05
		}
		add_treasury = -100
		
			}	
		}
	A05_prepare_logistics ={
	icon = mission_rb_import_potatoes
		required_missions = { A05_purchasing_a_map }
		position = 7
		
		trigger = {
		1746 = { country_or_non_sovereign_subject_holds = ROOT
		}
		1749 = {country_or_non_sovereign_subject_holds = ROOT
		}
		mil_power = 100
		treasury = 50
		}
		provinces_to_highlight = {
			OR = {
				province_id = 1746
				province_id = 1749
			}
			NOT = {
				country_or_non_sovereign_subject_holds = ROOT
			}
		}
		effect = {
		brelar_area = {
				limit = {
					NOT = { is_core = ROOT }
					NOT = { owned_by = ROOT }
				}
			add_permanent_claim = ROOT
		}
		1171 = {
				limit = {
					NOT = { is_core = ROOT }
					NOT = { owned_by = ROOT }
				}
			add_permanent_claim = ROOT
		}
		add_mil_power = -100
		add_treasury = -50
			}	
		}
	A05_vareynn_secured ={
	icon = boh_humiliate_austria
		required_missions = { A05_prepare_logistics }
		position = 8
		
		trigger = { 
			brelar_area = {
				type = all
				country_or_non_sovereign_subject_holds = ROOT
			}
			1171 = {country_or_non_sovereign_subject_holds = ROOT
			}
			mil_power = 20
			treasury = 20
			manpower = 1
		}
		provinces_to_highlight = {
			OR = {
				area = brelar_area
				province_id = 1171
			}
			NOT = {
				country_or_non_sovereign_subject_holds = ROOT
			}
			
		}
		effect = {
			add_estate_loyalty = {
				estate = estate_burghers
				loyalty = 10
			}
			add_mil_power = -20
			add_treasury = -20
			country_event = { id = reveria.17 }	
		}	
	}	
		
	A05_damned_dam ={
	icon = mission_defeat_jaunpur
		required_missions = { A05_vareynn_secured }
		position = 9
		
				provinces_to_highlight = {
				province_id = 1165
			
				NOT = { owned_by = ROOT }
				has_discovered = ROOT	
				}
		
		trigger = {
		1165 = {country_or_non_sovereign_subject_holds = ROOT
			}
			mil_power = 50
			treasury = 50
			manpower = 5
				
			
		}
		
		effect = {
			add_mil_power = -50
			add_treasury = -50
			sarda_region = {
			discover_country = A05
			}
			2781 = {
			discover_country = A05
			}
			add_estate_loyalty = {
				estate = estate_burghers
				loyalty = 5
			}
			country_event = { id = reveria.18 }	
			}	
	}
		
	A05_vels_bacar_dam ={
	icon = mission_viking
		required_missions = { A05_damned_dam }
		position = 10
		
		
		provinces_to_highlight = {
				province_id = 1138
			
				NOT = { owned_by = ROOT }
				has_discovered = ROOT	
		}		
		
		trigger = {
		1138 = {country_or_non_sovereign_subject_holds = ROOT
			}
			mil_power = 80
			treasury = 100
			manpower = 8
				
			
		}
		
		effect = {
			add_mil_power = -80
			add_treasury = -100
			add_estate_loyalty = {
				estate = estate_burghers
				loyalty = 5
			}
			country_event = { id = reveria.19 }	
			}	
		}
		
	A05_the_fate_of_the_dome ={
	icon = take_the_bishoprics
		required_missions = { A05_vels_bacar_dam }
		position = 11
		
		provinces_to_highlight = {
				province_id = 1142
			
				NOT = { owned_by = ROOT }
				has_discovered = ROOT	
		}		
		
		trigger = {
		owns_or_non_sovereign_subject_of = 1142	
		}
		
		effect = {
			country_event = { id = reveria.23 }
			}	
		}
		
	A05_subjugation_of_the_ynn ={
	icon = mission_burning_castle
		required_missions = { A05_the_fate_of_the_dome A05_the_last_dragon_of_aelantir }
		position = 12
		
		trigger = {
			prestige = 50
		}
		
		effect = {
				sarda_region = {
					add_permanent_claim = ROOT
				}
				dolindha_region = {
					add_permanent_claim = ROOT
				}
				rzenta_region = {
					add_permanent_claim = ROOT
				}
				pomvasonn_area = {
					add_permanent_claim = ROOT
				}
			}	
		}
}

