covenant_influence_edict = {
	potential = {
		has_country_flag = aelnar_the_covenant
	}
	
	allow = {
		always = yes
	}
	
	modifier = {
		local_unrest = -2
	}
	
	color = { 55 57 80 }
	
	
	ai_will_do = {
		factor = 200
	}
}
