namespace = zokka_jaddari_war

#Zokka-Jaddari Conflict
country_event = {
	id = zokka_jaddari_war.1
	title = zokka_jaddari_war.1.t
	desc = zokka_jaddari_war.1.d #After our recent war against the sun elves we have pushed directly into Bulwar. However our rear flank hasn't been covered yet
	picture = HORDE_ON_HORSEBACK_eventPicture
	
	fire_only_once = yes
	major = yes
	
	trigger = {
		tag = F29
		is_year = 1445
	}
	
	mean_time_to_happen = {
		months = 12
	}
	
	option = {
		name = zokka_jaddari_war.1.a  #We must crush these elves
		ai_chance = {
			factor = 1
			modifier = {
				factor = 0
				is_at_war = yes
			}
			modifier = {
				factor = 0
				has_any_disaster = yes
			}
		}
		ROOT = {
			declare_war_with_cb = {
				who = F46
				casus_belli = cb_monster_vs_civ
			}
		}
		saranza_area = {
			add_claim = F29
		}
		keruhar_area = {
			add_claim = F29
		}
		harpys_gate_area = {
			add_claim = F29
		}
	}
	option = {
		name = zokka_jaddari_war.1.b #They're not a threat
		ai_chance = {
			factor = 0
		}
		add_prestige = -10
	}
}

#Zokka-Jaddar duel: Zokka Falls
country_event = {
	id = zokka_jaddari_war.2
	title = zokka_jaddari_war.2.t
	desc = zokka_jaddari_war.2.d
	picture = HORDE_ON_HORSEBACK_eventPicture
	
	is_triggered_only = yes
	fire_only_once = yes
	
	option = {
		name = zokka_jaddari_war.2.a  #Victorious!
		
		add_prestige = 10
		
		upper_suran_area = {
			limit = { owned_by = F29 }
			cede_province = F45
			add_core = F45
		}
		vassalize = F45
		hidden_effect = {
			F45 = {
				every_owned_province = {
					add_institution_embracement = {
						which = feudalism
						value = 100
					}
				}
				while = {
					limit = { NOT = { adm_tech = 3 } }
					add_adm_tech = 1
				}
				while = {
					limit = { NOT = { dip_tech = 3 } }
					add_dip_tech = 1
				}
				while = {
					limit = { NOT = { mil_tech = 3 } }
					add_mil_tech = 1
				}
			}
			set_ruler_flag = jaddar_defeated_zokka
		}
		if = {
			limit = { ai = yes }
			F45 = {
				change_religion = the_jadd
				add_country_modifier = {
					name = "conversion_zeal"
					duration = 3650
				}
			}
		}
		
		#Give All of Zokka's land to Jaddari, except for 1 province that goes to Tluukt
		F29 = {
			country_event = {
				id = zokka_jaddari_war.3
				days = 1
			}
			every_owned_province = {
				limit = {
					OR = {
						region = far_bulwar_region
						region = far_salahad_region
					}
					NOT = { is_capital = yes }
				}
				cede_province = F46
			}
		}
		
		#Fire event for Sareyand to claim Hasr
		F25 = {
			country_event = { id = zokka_jaddari_war.8 days = 10 }
		}
		
		country_event = {
			id = zokka_jaddari_war.6
			days = 30
			random = 60
		}
		
		ai_chance = {
			factor = 1
		}
	}
}

#Zokka-Jaddar duel: Zokka Falls (notification)
country_event = {
	id = zokka_jaddari_war.3
	title = zokka_jaddari_war.3.t
	desc = zokka_jaddari_war.3.d
	picture = HORDE_ON_HORSEBACK_eventPicture
	
	is_triggered_only = yes
	fire_only_once = yes
	
	immediate = {
		kill_ruler = yes
	}
	
	option = {
		name = zokka_jaddari_war.3.a  #Disastrous!
		
		#Fire event for Tluukt that gives them a tiny bit of land and a bonus to their government.
		switch_tag = F28
		every_subject_country = {
			grant_independence = yes
			white_peace = F46
		}
		if = {
			limit = { capital_scope = { OR = { region = far_bulwar_region region = far_salahad_region } } }
			capital_scope = { cede_province = F46 }
		}
		every_owned_province = {
			cede_province = F28
		}
		F28 = {
			country_event = {
				id = zokka_jaddari_war.10
				days = 5
			}
		}
		
		ai_chance = {
			factor = 1
		}
	}
}

#Zokka-Jaddar duel: Jaddar Falls
country_event = {
	id = zokka_jaddari_war.4
	title = zokka_jaddari_war.4.t
	desc = zokka_jaddari_war.4.d
	picture = HORDE_ON_HORSEBACK_eventPicture
	
	is_triggered_only = yes
	fire_only_once = yes
	
	option = {
		name = zokka_jaddari_war.4.a  #Victorious!
		
		add_prestige = 10
		
		#Give all Jaddari's land that's not the capital area to Zokka
		F46 = {
			country_event = {
				id = zokka_jaddari_war.5
				days = 1
			}
			every_owned_province = {
				limit = {
					NOT = { area = far_east_salahad_area }
				}
				cede_province = F29
			}
		}
		
		country_event = {
			id = zokka_jaddari_war.7
			days = 30
			random = 60
		}
		
		ai_chance = {
			factor = 1
		}
	}
}

#Zokka-Jaddar duel: Jaddar Falls (Notification)
country_event = {
	id = zokka_jaddari_war.5
	title = zokka_jaddari_war.5.t
	desc = zokka_jaddari_war.5.d
	picture = HORDE_ON_HORSEBACK_eventPicture
	
	is_triggered_only = yes
	fire_only_once = yes
	
	immediate = {
		kill_ruler = yes
	}
	
	option = {
		name = zokka_jaddari_war.5.a  #Disastrous!
		
		add_stability = -3
		
		#Join Elayenna and make Jaddari a march
		switch_tag = F49
		F49 = {
			create_march = F46
			large_increase_of_elven_tolerance_effect = yes
		}
		
		
		ai_chance = {
			factor = 1
		}
	}
}

#Zokka-Jaddari war: The matter of the Gnolls
country_event = {
	id = zokka_jaddari_war.6
	title = zokka_jaddari_war.6.t
	desc = zokka_jaddari_war.6.d
	picture = WOUNDED_SOLDIERS_eventPicture
	
	is_triggered_only = yes
	fire_only_once = yes
	
	option = {
		name = zokka_jaddari_war.6.a #Show them the Truth of Surael
		ai_chance = {
			factor = 6
		}
		small_increase_of_gnollish_tolerance_effect = yes
		every_owned_province = {
			limit = { culture = east_sandfang_gnoll }
			add_nationalism = -5
			add_province_modifier = {
				name = jaddari_speading_the_truth_of_surael
				duration = 7200
			}
		}
	}
	
	option = {
		name = zokka_jaddari_war.6.b #Burn out the Xhazobine!
		ai_chance = {
			factor = 1
		}
		every_owned_province = {
			limit = { culture = east_sandfang_gnoll }
			add_province_modifier = {
				name = jaddari_burning_out_the_xhazobkult
				duration = 3650
			}
		}
		add_estate_loyalty = {
			estate = estate_church
			loyalty = 10
		}
	}
}

#Zokka-Jaddari war: The Matter of the Elves
country_event = {
	id = zokka_jaddari_war.7
	title = zokka_jaddari_war.7.t
	desc = zokka_jaddari_war.7.d
	picture = WOUNDED_SOLDIERS_eventPicture
	
	is_triggered_only = yes
	fire_only_once = yes
	
	option = {
		name = zokka_jaddari_war.7.a #Feast on their flesh!
		ai_chance = {
			factor = 1
		}
		#! Make them more monstrous
		harpys_gate_area = {
			limit = { owned_by = ROOT }
			change_religion = xhazobkult
			change_culture = east_sandfang_gnoll
			add_devastation = 60
		}
		keruhar_area = {
			limit = { owned_by = ROOT }
			change_religion = xhazobkult
			change_culture = east_sandfang_gnoll
			add_devastation = 60
		}
		add_country_modifier = {
			name = zokka_monsters_among_the_monsters
			duration = 7200
		}
		add_legitimacy = 10
	}
	
	option = {
		name = zokka_jaddari_war.7.b #They'll make good slaves
		ai_chance = {
			factor = 1
		}
		
		saranza_area = {
			limit = { owned_by = ROOT }
			change_trade_goods = slaves
		}
		harpys_gate_area = {
			limit = { owned_by = ROOT }
			change_trade_goods = slaves
		}
		capital_scope = {
			add_base_production = 2
		}
		add_country_modifier = {
			name = zokka_influx_of_fresh_slaves
			duration = 7200
		}
	}
}

#Zokka-Jaddari war: Hasr's independence (Sareyand)
country_event = {
	id = zokka_jaddari_war.8
	title = zokka_jaddari_war.8.t
	desc = zokka_jaddari_war.8.d
	picture = BATTLE_eventPicture
	
	is_triggered_only = yes
	fire_only_once = yes
	
	option = {
		name = zokka_jaddari_war.8.a #Demand back our land!
		
		custom_tooltip = zokka_jaddari_sareyand_demands_land_tt
		hidden_effect = {
			F46 = {
				country_event = {
					id = zokka_jaddari_war.9
					days = 10
				}
			}
		}
		upper_suran_area = {
			add_claim = ROOT
		}
		
		ai_chance = {
			factor = 1
		}
	}
	
	option = {
		name = zokka_jaddari_war.8.b #It will come back to us in time
		
		ai_chance = {
			factor = 0
		}
	}
}

#Zokka-Jaddari war: Sareyand demands back its land!
country_event = {
	id = zokka_jaddari_war.9
	title = zokka_jaddari_war.9.t
	desc = zokka_jaddari_war.9.d
	picture = DIPLOMACY_eventPicture
	
	is_triggered_only = yes
	fire_only_once = yes
	
	option = {
		name = zokka_jaddari_war.9.a #The True Phoenix shall be revealed then!
		
		#Sareyand declares war to reclaim its old land
		F25 = {
			declare_war_with_cb = {
				who = ROOT
				casus_belli = cb_core
				war_goal_province = 636
			}
		}
		
		ai_chance = {
			factor = 75
		}
	}
	
	option = {
		name = zokka_jaddari_war.9.b #We seek no quarrel with our friends
		
		reverse_add_opinion = {
			who = F25
			modifier = jaddari_returned_suran_valley
		}
		636 = { cede_province = F25 }
		637 = { cede_province = F25 }
		F25 = { vassalize = F45 }
		
		ai_chance = {
			factor = 25
		}
	}
}

#Zokka-Jaddari war: Tluukt absorbs Zokka's pack
country_event = {
	id = zokka_jaddari_war.10
	title = zokka_jaddari_war.10.t
	desc = zokka_jaddari_war.10.d
	picture = LAND_MILITARY_eventPicture
	
	is_triggered_only = yes
	fire_only_once = yes
	
	option = {
		name = zokka_jaddari_war.10.a
		ai_chance = {
			factor = 1
		}
		
		add_manpower = 10
		add_country_modifier = {
			name = tluukt_receiving_zokka_refugees
			duration = 3650
		}
	}
}

#Zokka-Jaddari war: EMPTY
country_event = {
	id = zokka_jaddari_war.11
	title = zokka_jaddari_war.11.t
	desc = zokka_jaddari_war.11.d
	picture = ANGRY_MOB_eventPicture
	
	is_triggered_only = yes
	fire_only_once = yes
	
	option = { #
		name = zokka_jaddari_war.11.a
		ai_chance = {
			factor = 1
		}
		
	}
}
