namespace = magic_study_events_evil

#Unregulated Research
country_event = {
	id = magic_study_events_evil.1	
	title = magic_study_events_evil.1.t	
	desc = magic_study_events_evil.1.d
	picture = CHURCH_ESTATE_eventPicture
	
	trigger = {
		has_ruler_modifier = ruler_studying_magic
		
		NOT = { has_ruler_flag = ruler_studying_unregulated_research }
	}
	
	mean_time_to_happen = {
		days = 9125
		modifier = {
			factor = 0.8
			ruler_has_personality = free_thinker_personality
		}
		modifier = {
			factor = 0.8
			ruler_has_personality = naive_personality
		}
		modifier = {
			factor = 0.8
			has_estate_privilege = estate_mages_reduced_research_regulations
		}
		modifier = {
			factor = 0.6
			has_ruler_modifier = witch_king_modifier
		}
		
		modifier = {
			factor = 0.7
			ROOT = { capital_scope = { superregion = escann_superregion } }
		}
	}
	
	#Ye go on then pal
	option = {	
		name = magic_study_events_evil.1.a
		ai_chance = {
			factor = 40
			modifier = {
				factor = 0
				NOT = { prestige = 10 }
			}
			modifier = {
				factor = 5
				ROOT = { capital_scope = { superregion = escann_superregion } }
			}
		}
		
		add_prestige = -10
		
		increase_witch_king_points_small = yes
		
		set_ruler_flag = ruler_studying_unregulated_research
		custom_tooltip = tooltip_ruler_studying_increase
	}
	
	#Nah
	option = {
		name = magic_study_events_evil.1.b
		ai_chance = {
			factor = 60
		}
		
		add_prestige = 5
	}
}

# Unsafe Experiments
country_event = {
	id = magic_study_events_evil.2
	title = magic_study_events_evil.2.t	
	desc = magic_study_events_evil.2.d
	picture = ADVISOR_eventPicture
	
	trigger = {
		has_ruler_modifier = ruler_studying_magic

		NOT = { has_ruler_flag = ruler_studying_unsafe_experiments }
	}
	
	mean_time_to_happen = {
		days = 9125
		modifier = {
			factor = 0.8
			ruler_has_personality =  obsessive_perfectionist_personality
		}
		modifier = {
			factor = 0.8
			ruler_has_personality =  free_thinker_personality
		}
		modifier = {
			factor = 0.8
			has_estate_privilege = estate_mages_reduced_research_regulations
		}
		modifier = {
			factor = 0.6
			has_ruler_modifier = witch_king_modifier
		}
		
		modifier = {
			factor = 0.7
			ROOT = { capital_scope = { superregion = escann_superregion } }
		}
	}
	
	#Yep
	option = {	
		name = magic_study_events_evil.2.a
		ai_chance = {
			factor = 40
			modifier = {
				factor = 5
				ROOT = { capital_scope = { superregion = escann_superregion } }
			}
		}
		
		add_prestige = -20
		
		increase_witch_king_points_small = yes
		
		set_ruler_flag = ruler_studying_unsafe_experiments
		custom_tooltip = tooltip_ruler_studying_increase
	}
	
	#Nah
	option = {
		name = magic_study_events_evil.2.b
		ai_chance = {
			factor = 60
			modifier = {
				factor = 100
				NOT = { prestige = 20 }
			}
		}
		
		add_prestige = 5
	}
}

# Live Test Subjects
country_event = {
	id = magic_study_events_evil.3
	title = magic_study_events_evil.3.t
	desc = magic_study_events_evil.3.d
	picture = BIG_BOOK_eventPicture
	
	trigger = {
		has_ruler_modifier = ruler_studying_magic
		
		NOT = { has_ruler_flag = ruler_studying_live_experiments }
	}
	
	mean_time_to_happen = {
		days = 9125
		modifier = {
			factor = 0.8
			ruler_has_personality = cruel_personality
		}
		modifier = {
			factor = 0.8
			has_estate_privilege = estate_mages_reduced_research_regulations
		}
		modifier = {
			factor = 0.6
			has_ruler_modifier = witch_king_modifier
		}
		
		modifier = {
			factor = 0.7
			ROOT = { capital_scope = { superregion = escann_superregion } }
		}
	}
	
	#Abduct some  guys
	option = {
		name = magic_study_events_evil.3.a
		ai_chance = {
			factor = 40
			modifier = {
				factor = 5
				ROOT = { capital_scope = { superregion = escann_superregion } }
			}
		}
		
		add_manpower = -1
		set_ruler_flag = ruler_studying_live_experiments
		
		increase_witch_king_points_medium = yes
		
		custom_tooltip = tooltip_ruler_studying_increase
		
		random = {
			chance = 33
			ROOT = { country_event = { id = magic_study_events_evil.4 days = 15 random = 10} }
		}
	}
	
	#Nah
	option = {
		name = magic_study_events_evil.3.b
		ai_chance = {
			factor = 60
		}
		
		add_prestige = 5
	}
	
	#Enchant people
	option = {
		name = magic_study_events_evil.3.c
		trigger = { has_ruler_flag = enchantment_2 }
		ai_chance = {
			factor = 1000
		}
		
		add_mil_power = -20
		
		custom_tooltip = tooltip_option_enchantment_2
		
		increase_witch_king_points_large = yes
		
		add_manpower = -1
		set_ruler_flag = ruler_studying_live_experiments
		custom_tooltip = tooltip_ruler_studying_increase
	}

}

# Live Test Subjects Exposed
country_event = {
	id = magic_study_events_evil.4
	title = magic_study_events_evil.4.t
	desc = magic_study_events_evil.4.d
	picture = BIG_BOOK_eventPicture
	
	is_triggered_only = yes
	
	trigger = {
		has_ruler_modifier = ruler_studying_magic
		has_ruler_flag = ruler_studying_live_experiments
	}
	
	#Assuage their concerns
	option = {
		name = magic_study_events_evil.4.a
		ai_chance = {
			factor = 50
			modifier = {
				factor = 3
				dip_power = 100
			}
		}
		
		add_dip_power = -50
		increase_witch_king_points_small = yes
		
		add_country_modifier = {
			name = ruler_studying_live_experiments
			duration = 730
		}
	}
	
	#Send a force to teach them a lesson
	option = {
		name = magic_study_events_evil.4.b
		ai_chance = {
			factor = 50
			modifier = {
				factor = 3
				mil_power = 100
			}
		}
		
		add_mil_power = -50
		increase_witch_king_points_large = yes
		
		add_country_modifier = {
			name = ruler_studying_live_experiments
			duration = 730
		}
	}
	
	#You are my subjects. Mine.
	option = {
		name = magic_study_events_evil.4.c
		trigger = { has_ruler_modifier = witch_king_modifier }
		ai_chance = {
			factor = 1000
		}
		add_prestige = 1
		increase_witch_king_points_medium = yes
		
		add_country_modifier = {
			name = ruler_studying_live_experiments
			duration = 365
		}
	}

}