#All are Country Scope unless otherwise stated.

#Consorts
create_new_internal_consort_effect = { #Don't use if you want more options with different random consorts.
	if = {
		limit = {
			has_dlc = "Rights of Man"
			has_consort = no
		}
		define_consort = {
			country_of_origin = ROOT
		}
	}
}

divorce_consort_effect = {

	#Foreign consort family expresses anger
	if = {
		limit = {
			OR = {
				NOT = { religion = catholic }
				AND = {
					religion = catholic
					NOT = { exists = PAP }
				}
			}
			has_foreign_consort = yes
		}

		random_country = {
			limit = { has_given_consort_to = ROOT } 

			hidden_effect = { country_event = { id = consort_events.205 days = 1 } } 

			tooltip = {
				add_opinion = {
					who = ROOT
					modifier = offended_by_divorce	
				}

				add_casus_belli = {
					target = ROOT
					type = cb_insult
					months = 60
				}
			}
		}
	}

	#Local consort family expresses anger
	if = {
		limit = {
			OR = {
				NOT = { religion = catholic }
				AND = {
					religion = catholic
					NOT = { exists = PAP }
				}
			}
			has_foreign_consort = no
			any_owned_province = {
				has_province_modifier = domain_of_spouses_family
			}
		}

		every_owned_province = {
			limit = { has_province_modifier = domain_of_spouses_family } 
			add_or_extend_province_modifier_effect = {
				MODIFIER = angered_nobles
				DURATION = 7300
			}
		}
	}

	#Set aside first wife and select another
	if = {
		limit = { NOT = { religion_group = christian } }

		custom_tooltip = divorce.a.tt

		hidden_effect = {	
			if = {
				limit = { NOT = { any_country = { has_given_consort_to = ROOT } } }
				remove_consort = yes
				country_event = { id = consort_events.206 }
			}
		}
	
		define_consort = { }
	}

	#Divorce
	if = {
		limit = {
			OR = {
				AND = {
					religion_group = christian
					NOT = { religion = catholic }
				}
				AND = {
					religion = catholic
					NOT = { exists = PAP }
				}
			}
		}

		custom_tooltip = divorce.b.tt
		
		hidden_effect = {	
			if = {
				limit = { NOT = { any_country = { has_given_consort_to = ROOT } } }
				remove_consort = yes
				country_event = { id = consort_events.206 }
			}
		}
	}

	#Papal dispensation
	if = {
		limit = {
			religion = catholic 
			exists = PAP
		}

		#How much influence will you spend?
		country_event = { id = consort_events.201 }
	}

	#Prestige hit
	if = {
		limit = {
			OR = {
				NOT = { religion = catholic }
				AND = {
					NOT = { exists = PAP }
					religion = catholic
				}
			}
		}
		add_prestige = -15
	}
}

save_origin_of_consort_effect = { #Used for all internal consorts.
	if = { # finds and saves foreign country as origin
		limit = {
			has_foreign_consort = yes
			any_country = { has_given_consort_to = ROOT }
		}
		random_country = {
			limit = { has_given_consort_to = ROOT }
			save_event_target_as = origin_of_consort
		}
	}
	if = { # finds and saves local province as origin
		limit = {
			has_foreign_consort = no
			any_owned_province = { has_province_modifier = domain_of_spouses_family }
		}
		random_owned_province = {
			limit = { has_province_modifier = domain_of_spouses_family }
			save_event_target_as = origin_of_consort
		}
	}
	if = { # finds and saves local province as origin
		limit = {
			has_foreign_consort = no
			has_ruler_flag = has_lowborn_consort
			any_owned_province = { has_province_modifier = home_of_consort }
		}
		random_owned_province = {
			limit = { has_province_modifier = home_of_consort }
			save_event_target_as = origin_of_consort
		}
	}
	if = { # if all else fails: use this consort_flag to set a triggered desc
		limit = {
			NOT = { has_saved_event_target = origin_of_consort }
		}
		set_consort_flag = home_province_lost
	}
}

#Heirs
increase_heir_dip_effect = {
	if = {
		limit = { NOT = { heir_dip = 6 } }
		change_heir_dip = 1
	}
	else = { add_dip_power = 50 }
}
increase_heir_adm_effect = {
	if = {
		limit = { NOT = { heir_adm = 6 } }
		change_heir_adm = 1
	}
	else = { add_adm_power = 50 }
}
increase_heir_mil_effect = {
	if = {
		limit = { NOT = { heir_mil = 6 } }
		change_heir_mil = 1
	}
	else = { add_mil_power = 50 }
}

#Anbennar - added this
decrease_heir_dip_effect = {
	if = {
		limit = { heir_dip = 1 }
		change_heir_dip = -1
	}
	else = { add_dip_power = -50 }
}
decrease_heir_adm_effect = {
	if = {
		limit = { heir_adm = 1 }
		change_heir_adm = -1
	}
	else = { add_adm_power = -50 }
}
decrease_heir_mil_effect = {
	if = {
		limit = { heir_mil = 1 }
		change_heir_mil = -1
	}
	else = { add_mil_power = -50 }
}

#Rulers

#Anbennar - added this
increase_ruler_dip_effect = {
	if = {
		limit = { NOT = { dip = 6 } }
		change_dip = 1
	}
	else = { add_dip_power = 50 }
}
increase_ruler_adm_effect = {
	if = {
		limit = { NOT = { adm = 6 } }
		change_adm = 1
	}
	else = { add_adm_power = 50 }
}
increase_ruler_mil_effect = {
	if = {
		limit = { NOT = { mil = 6 } }
		change_mil = 1
	}
	else = { add_mil_power = 50 }
}

decrease_ruler_dip_effect = {
	if = {
		limit = { dip = 1 }
		change_dip = -1
	}
	else = { add_dip_power = -50 }
}
decrease_ruler_adm_effect = {
	if = {
		limit = { adm = 1 }
		change_adm = -1
	}
	else = { add_adm_power = -50 }
}
decrease_ruler_mil_effect = {
	if = {
		limit = { mil = 1 }
		change_mil = -1
	}
	else = { add_mil_power = -50 }
}

set_heir_mage_effect = {
	set_heir_flag = heir_consort_mage_personality
	add_ruler_modifier = {
		name = heir_mage_personality_mod
		duration = -1
	}
}

set_consort_mage_effect = {
	set_consort_flag = heir_consort_mage_personality
	add_ruler_modifier = {
		name = consort_mage_personality_mod
		duration = -1
	}
}

clear_ruler_personalities = {
	custom_tooltip = clear_ruler_personalities_tt
	hidden_effect = {
		remove_ruler_personality = just_personality
		remove_ruler_personality = righteous_personality
		remove_ruler_personality = tolerant_personality
		remove_ruler_personality = kind_hearted_personality
		remove_ruler_personality = free_thinker_personality
		remove_ruler_personality = well_connected_personality
		remove_ruler_personality = calm_personality
		remove_ruler_personality = careful_personality
		remove_ruler_personality = secretive_personality
		remove_ruler_personality = intricate_web_weaver_personality
		remove_ruler_personality = fertile_personality
		remove_ruler_personality = well_advised_personality
		remove_ruler_personality = benevolent_personality
		remove_ruler_personality = zealot_personality
		remove_ruler_personality = pious_personality
		remove_ruler_personality = lawgiver_personality
		remove_ruler_personality = midas_touched_personality
		remove_ruler_personality = incorruptible_personality
		remove_ruler_personality = architectural_visionary_personality
		remove_ruler_personality = scholar_personality
		remove_ruler_personality = entrepreneur_personality
		remove_ruler_personality = industrious_personality
		remove_ruler_personality = expansionist_personality
		remove_ruler_personality = charismatic_negotiator_personality
		remove_ruler_personality = silver_tongue_personality
		remove_ruler_personality = conqueror_personality
		remove_ruler_personality = tactical_genius_personality
		remove_ruler_personality = bold_fighter_personality
		remove_ruler_personality = strict_personality
		remove_ruler_personality = inspiring_leader_personality
		remove_ruler_personality = martial_educator_personality
		remove_ruler_personality = navigator_personality
		remove_ruler_personality = fierce_negotiator_personality
		remove_ruler_personality = babbling_buffoon_personality
		remove_ruler_personality = embezzler_personality
		remove_ruler_personality = infertile_personality
		remove_ruler_personality = drunkard_personality
		remove_ruler_personality = sinner_personality
		remove_ruler_personality = greedy_personality
		remove_ruler_personality = cruel_personality
		remove_ruler_personality = naive_personality
		remove_ruler_personality = craven_personality
		remove_ruler_personality = loose_lips_personality
		remove_ruler_personality = obsessive_perfectionist_personality
		remove_ruler_personality = malevolent_personality
		remove_ruler_personality = immortal_personality
		remove_ruler_personality = mage_personality
		remove_ruler_personality = humane_personality
		remove_ruler_personality = petty_personality
	}
}

clear_heir_personalities = {
	custom_tooltip = clear_heir_personalities_tt
	hidden_effect = {
		remove_heir_personality = just_personality
		remove_heir_personality = righteous_personality
		remove_heir_personality = tolerant_personality
		remove_heir_personality = kind_hearted_personality
		remove_heir_personality = free_thinker_personality
		remove_heir_personality = well_connected_personality
		remove_heir_personality = calm_personality
		remove_heir_personality = careful_personality
		remove_heir_personality = secretive_personality
		remove_heir_personality = intricate_web_weaver_personality
		remove_heir_personality = fertile_personality
		remove_heir_personality = well_advised_personality
		remove_heir_personality = benevolent_personality
		remove_heir_personality = zealot_personality
		remove_heir_personality = pious_personality
		remove_heir_personality = lawgiver_personality
		remove_heir_personality = midas_touched_personality
		remove_heir_personality = incorruptible_personality
		remove_heir_personality = architectural_visionary_personality
		remove_heir_personality = scholar_personality
		remove_heir_personality = entrepreneur_personality
		remove_heir_personality = industrious_personality
		remove_heir_personality = expansionist_personality
		remove_heir_personality = charismatic_negotiator_personality
		remove_heir_personality = silver_tongue_personality
		remove_heir_personality = conqueror_personality
		remove_heir_personality = tactical_genius_personality
		remove_heir_personality = bold_fighter_personality
		remove_heir_personality = strict_personality
		remove_heir_personality = inspiring_leader_personality
		remove_heir_personality = martial_educator_personality
		remove_heir_personality = navigator_personality
		remove_heir_personality = fierce_negotiator_personality
		remove_heir_personality = babbling_buffoon_personality
		remove_heir_personality = embezzler_personality
		remove_heir_personality = infertile_personality
		remove_heir_personality = drunkard_personality
		remove_heir_personality = sinner_personality
		remove_heir_personality = greedy_personality
		remove_heir_personality = cruel_personality
		remove_heir_personality = naive_personality
		remove_heir_personality = craven_personality
		remove_heir_personality = loose_lips_personality
		remove_heir_personality = obsessive_perfectionist_personality
		remove_heir_personality = malevolent_personality
		remove_heir_personality = immortal_personality
		remove_heir_personality = mage_personality
		remove_heir_personality = humane_personality
		remove_heir_personality = petty_personality
	}
}

clear_consort_personalities = {
	custom_tooltip = clear_consort_personalities_tt
	hidden_effect = {
		remove_queen_personality = just_personality
		remove_queen_personality = righteous_personality
		remove_queen_personality = tolerant_personality
		remove_queen_personality = kind_hearted_personality
		remove_queen_personality = free_thinker_personality
		remove_queen_personality = well_connected_personality
		remove_queen_personality = calm_personality
		remove_queen_personality = careful_personality
		remove_queen_personality = secretive_personality
		remove_queen_personality = intricate_web_weaver_personality
		remove_queen_personality = fertile_personality
		remove_queen_personality = well_advised_personality
		remove_queen_personality = benevolent_personality
		remove_queen_personality = zealot_personality
		remove_queen_personality = pious_personality
		remove_queen_personality = lawgiver_personality
		remove_queen_personality = midas_touched_personality
		remove_queen_personality = incorruptible_personality
		remove_queen_personality = architectural_visionary_personality
		remove_queen_personality = scholar_personality
		remove_queen_personality = entrepreneur_personality
		remove_queen_personality = industrious_personality
		remove_queen_personality = expansionist_personality
		remove_queen_personality = charismatic_negotiator_personality
		remove_queen_personality = silver_tongue_personality
		remove_queen_personality = conqueror_personality
		remove_queen_personality = tactical_genius_personality
		remove_queen_personality = bold_fighter_personality
		remove_queen_personality = strict_personality
		remove_queen_personality = inspiring_leader_personality
		remove_queen_personality = martial_educator_personality
		remove_queen_personality = navigator_personality
		remove_queen_personality = fierce_negotiator_personality
		remove_queen_personality = babbling_buffoon_personality
		remove_queen_personality = embezzler_personality
		remove_queen_personality = infertile_personality
		remove_queen_personality = drunkard_personality
		remove_queen_personality = sinner_personality
		remove_queen_personality = greedy_personality
		remove_queen_personality = cruel_personality
		remove_queen_personality = naive_personality
		remove_queen_personality = craven_personality
		remove_queen_personality = loose_lips_personality
		remove_queen_personality = obsessive_perfectionist_personality
		remove_queen_personality = malevolent_personality
		remove_queen_personality = immortal_personality
		remove_queen_personality = mage_personality
		remove_queen_personality = humane_personality
		remove_queen_personality = petty_personality
	}
}